﻿ID;Pytanie;Odpowiedz1;Odpowiedz2;Odpowiedz3;Odpowiedz4;Poprawna_odpowiedz
1;Znajdź błąd.;na przeciw;na przemian;na przełaj;na przekór;na przeciw
2;Mieć się z pyszna to:;być w tarapatach;czuć niebo w gębie;szczycić się czymś;być obrzydliwie bogatym;być w tarapatach
3;Ile punktów zdobywa się za celny rzut osobisty do kosza z linii rzutów wolnych?;1;2;3;4;1
4;Chrzest Polski miał miejsce w roku?;966;900;699;969;966
5;Kto był założycielem Akademii Krakowskiej?;Kazimierz III Wielki;Władysław I Łokietek;Władysław II Jagiełło;Bolesław Chrobry;Kazimierz III Wielki
6;Rybą nie jest:;kraska;świnka;krasnopiórka;rozpiór;kraska
7;Z którego państwa pochodzą produkcje filmowe określane mianem "Bollywoodzkich"?;Indii;Francji;Izraela;Chin;Indii
8;Do jakiej gromady należą foki?;Ssaków;Gadów;Płazów;Ryb;Ssaków
9;Która z bajek została wyprodukowana w Studiu Filmów Rysunkowych w Bielsku-Białej?;Porwanie Baltazara Gąbki;Kubuś Puchatek;Krecik;Pinokio;Porwanie Baltazara Gąbki
10;Symbol H w układzie okresowym pierwiastków oznacza?;Wodór;Sód;Tlen;Potas;Wodór
