﻿ID;Pytanie;Odpowiedz1;Odpowiedz2;Odpowiedz3;Odpowiedz4;Poprawna_odpowiedz
1;Numer 24 to numer kierunkowy do którego miasta w Polsce?;Płocka;Ostrołęki;Siedlec;Ciechanowa;Płocka
2;Szałaput, wartogłów, paliwoda, narwaniec to:;gorąca głowa;letnie serce;zimne nogi;przestygła krew;gorąca głowa
3;Jaką nazwę nosi najdłużej emitowany serial na świecie?;Guiding Light;Coronation Street;General Hospital;Moda na sukces;Guiding Light
4;Pod jaki zabór trafił Białystok w 1795 r., jeśli trafił?;pod pruski;pod rosyjski;pod austriacki;nie trafił pod żaden;pod pruski
5;Jaki wiek osiągnął najdłużej żyjący człowiek na świecie?;122 lata;124 lata;126 lat;118 lat;122 lata
6;Jakim symbolem zazwyczaj oznaczona jest przegroda w szufladce pralki, do której wlewamy płyn do płukania?;kwiatkiem;piórkiem;sercem;uśmiechniętą buźką;kwiatkiem
7;Jaką wysokość ma bramka w hokeju na lodzie?;122 cm;65 cm;90 cm;206 cm;122 cm
8;Najwięcej glukozy zużywa;mózg;trzustka;wątroba;serce;mózg
9;Dwutlenek ceru;posłuży do polerowania szkła;zaradzi dziurze w rajstopach;nie istnieje;to środek przeciwwymiotny;posłuży do polerowania szkła
10;Do ilu mórz ma dostęp Albania?;2;1;3;0;2
