﻿ID;Pytanie;Odpowiedz1;Odpowiedz2;Odpowiedz3;Odpowiedz4;Poprawna_odpowiedz
1;Ile słoneczników było w trzeciej wersji obrazu Van Gogha „Słoneczniki”?;12;13;11;10;12
2;Gdzie znajduje się Żywe Muzeum Porcelany?;w Ćmielowie;w Opatówku;w Mysłowicach;w Myślenicach;w Ćmielowie
3;Kapliczkę "Na Wodzie" z XVIII w. możemy podziwiać w:;Krasnobrodzie;Ojcowie;Giżycku;Rydzewie;Krasnobrodzie
4;Które z tych państw jest największe?;Andora;Liechtenstein;Luksemburg;Monako;Andora
5;Devon rex to nazwa rasy jakiego zwierzęcia?;kota;psa;konia;szczura;kota
6;Kto jako 34-letni młodzieniec został pierwszym powojennym premierem Polski?;Edward Osóbka-Morawski;Władysław Grabski;hr. Stanisław Małachowski;Wincenty Witos;Edward Osóbka-Morawski
7;Wyspy Kanaryjskie, Zielonego Przylądka, Selvagens, Azory i Madera tworzą:;Makaronezję;Salaminezję;Bazylianezję;Pizzanezję;Makaronezję
8;Mistrzami jakiej broni są Atos, Portos i Aramis z książki Aleksandra Dumasa?;szpady;szabli;włóczni;miecza;szpady
9;W mózgu istota szara, tworząc korę mózgu, otacza istotę białą. W rdzeniu kręgowym jest...;odwrotnie;tak samo;tylko istota szara;tylko istota biała;odwrotnie
10;Demi-glace to:;sos pieczeniowy;ołysiały czerep;kieliszeczki do likieru;półmrozek;sos pieczeniowy
