﻿ID;Pytanie;Odpowiedz1;Odpowiedz2;Odpowiedz3;Odpowiedz4;Poprawna_odpowiedz
1;52°13'N i 21°00'E to współrzędne geograficzne:;Warszawy;Ottawy;Rio de Janeiro;Kapsztadu;Warszawy
2;Jedna ze sztuk Williama Szekspira to:;"Miarka za miarkę";"Miarka się przebrała";"Miarka do miarki";"Miarka w miarkę";"Miarka za miarkę"
3;Czego nie mają koty rasy manx?;ogona;uszu;pazurów;pigmentu;ogona
4;Czego nie je laktoowowegetarianin?;ryby;śmietany;jajka;miodu;ryby
5;Na czele której partii w maju 1991 roku stanął Tadeusz Mazowiecki?;Unii Demokratycznej;Porozumienia Centrum;ZChN;Partii X;Unii Demokratycznej
6;Stolicą Sardyni jest?;Cagliari;Oristano;Fonni;Sassari;Cagliari
7;Jak nazywa się chorobliwy lęk przed ogniem;pirofobia ;trypofobia;arachnofobia;termofobia;pirofobia 
8;Jak nazywa się uznanie zagranicznego dyplomu lub tytułu naukowego za równoważny z krajowym?;Nostryfikacja;Notyfikacja;Nota;Nobilitacja;Nostryfikacja
9;Kto wynalazł gramofon?;Emile Berliner;Guglielmo Marconi;Rex Garrod;William Dubilier;Emile Berliner
10;Jak nazywa się pierwotna substancja w reakcji chemicznej?;substrakt;synteza;produkt;związek;substrakt
