﻿ID;Pytanie;Odpowiedz1;Odpowiedz2;Odpowiedz3;Odpowiedz4;Poprawna_odpowiedz
1;Wieże której budowli wieńczą różnokolorowe cebulaste kopuły?;cerkwi Wasyla Błogosławionego;katedry Notre Dame;mauzoleum Tadż Mahal;zamku na Wawelu;cerkwi Wasyla Błogosławionego
2;Co mieści Wielki Łuk Braterstwa w paryskiej dzielnicy La Defense, zwany dwudziestowieczną wersją Łuku Triumfalnego?;Biura ministerstwa ekologii;Ziemię z pól bitewnych;Nic;Szczątki Napoleona I;Biura ministerstwa ekologii
3;Kto jest twórcą logo zespołu Perfect?;Edward Lutczyn;Marek Raczkowski;Henryk Sawka;Andrzej Mleczko;Edward Lutczyn
4;Co według Leszka Kołakowskiego jest sklepieniem domu, w którym duch ludzki mieszka?;Czas;Rozum;Bóg;Miłość;Czas
5;Co łączy rowerowa szprycha?;piastę z obręczą;obręcz z dętką;dętkę z piastą;obręcz z widelcem;piastę z obręczą
6;Z tego zestawu formą najbardziej przypomina owoc morwy:;morula;gameta żeńska;płód;gameta męska;morula
7;Który aktor urodził się w roku opatentowania kinematografu braci Lumière?;Rudolph Valentino;Humphrey Bogart;Charlie Chaplin;Fred Astaire;Rudolph Valentino
8;W jakim państwie znajduje się miasto Patna?;Indie;Bangladesz;Pakistan;Tajlandia;Indie
9;W którym roku założono zespół Led Zeppelin?;1968;1969;1972;1971;1968
10;Który utwór Juliusza Słowackiego napisany jest prozą?;"Anhelli";"Arab";"Godzina myśli";"W Szwajcarii";"Anhelli"
