﻿ID;Pytanie;Odpowiedz1;Odpowiedz2;Odpowiedz3;Odpowiedz4;Poprawna_odpowiedz
1;Ile było wojen punickich?;trzy;cztery;pięć;dwie;trzy
2;Najwyższy głos żeński to:;Sopran;Alt;Kontralt;Tenor;Sopran
3;Kto zdobył Oscara dla najlepszego aktora za filmy Filadelfia (1993) i Forrest Gump (1994)?;Tom Hanks;Leonardo DiCaprio;Tom Cruise;Gary Sinise;Tom Hanks
4;Kto napisał książkę pt. "Kochankowie z Marony"?;Jarosław Iwaszkiewicz;Cyprian Kamil Norwid;Tadeusz Konwicki;Jerzy Andrzejewski;Jarosław Iwaszkiewicz
5;Ile pierścieni widnieje na fladze olimpijskiej?;5;4;6;7;5
6;Które z wymienionych zwierząt nie poluje nocą?;jastrząb;lis;fenek;pójdźka;jastrząb
7;Nagrody Nobla w dziedzinie fizyki, chemii i literarury przyznawane są w:;Sztokholmie;Oslo;Kopenhadze;Amsterdamie;Sztokholmie
8;Mieszaniec klaczy zebry z koniem lub osłem to?;zebroid;klaczoid;koniobryd;horsoid;zebroid
9;W którym z państw miało miejsce pogrom hugenotów (Inaczej noc św. Bartłomieja)?;Francja;Włochy;Hiszpania;Czechy;Francja
10;Sztuka warzenia piwa to inaczej:;piwowarstwo;piworzenie;piworóbstwo;chmielowarstwo;piwowarstwo
